{
  "results": [
    {
      "vote_count": 726,
      "id": 439079,
      "video": false,
      "vote_average": 5.9,
      "title": "The Nun",
      "popularity": 164.352,
      "poster_path": "/sFC1ElvoKGdHJIWRpNB3xWJ9lJA.jpg",
      "original_language": "en",
      "original_title": "The Nun",
      "genre_ids": [
        27,
        9648,
        53
      ],
      "backdrop_path": "/fgsHxz21B27hOOqQBiw9L6yWcM7.jpg",
      "adult": false,
      "overview": "When a young nun at a cloistered abbey in Romania takes her own life, a priest with a haunted past and a novitiate on the threshold of her final vows are sent by the Vatican to investigate. Together they uncover the order’s unholy secret. Risking not only their lives but their faith and their very souls, they confront a malevolent force in the form of the same demonic nun that first terrorized audiences in “The Conjuring 2,” as the abbey becomes a horrific battleground between the living and the damned.",
      "release_date": "2018-09-05"
    },
    {
      "vote_count": 345,
      "id": 346910,
      "video": false,
      "vote_average": 5.5,
      "title": "The Predator",
      "popularity": 154.329,
      "poster_path": "/wMq9kQXTeQCHUZOG4fAe5cAxyUA.jpg",
      "original_language": "en",
      "original_title": "The Predator",
      "genre_ids": [
        27,
        878,
        28,
        35
      ],
      "backdrop_path": "/f4E0ocYeToEuXvczZv6QArrMDJ.jpg",
      "adult": false,
      "overview": "From the outer reaches of space to the small-town streets of suburbia, the hunt comes home. Now, the universe’s most lethal hunters are stronger, smarter and deadlier than ever before, having genetically upgraded themselves with DNA from other species. When a young boy accidentally triggers their return to Earth, only a ragtag crew of ex-soldiers and a disgruntled science teacher can prevent the end of the human race.",
      "release_date": "2018-09-13"
    },
    {
      "vote_count": 611,
      "id": 400155,
      "video": false,
      "vote_average": 6.9,
      "title": "Hotel Transylvania 3: Summer Vacation",
      "popularity": 154.287,
      "poster_path": "/gjAFM4xhA5vyLxxKMz38ujlUfDL.jpg",
      "original_language": "en",
      "original_title": "Hotel Transylvania 3: Summer Vacation",
      "genre_ids": [
        10751,
        14,
        35,
        16
      ],
      "backdrop_path": "/m03jul0YdVEOFXEQVUv6pOVQYGL.jpg",
      "adult": false,
      "overview": "Dracula, Mavis, Johnny and the rest of the Drac Pack take a vacation on a luxury Monster Cruise Ship, where Dracula falls in love with the ship’s captain, Ericka, who’s secretly a descendant of Abraham Van Helsing, the notorious monster slayer.",
      "release_date": "2018-06-28"
    },
    {
      "vote_count": 30,
      "id": 507569,
      "video": false,
      "vote_average": 6,
      "title": "The Seven Deadly Sins: Prisoners of the Sky",
      "popularity": 115.22,
      "poster_path": "/r6pPUVUKU5eIpYj4oEzidk5ZibB.jpg",
      "original_language": "ja",
      "original_title": "The Seven Deadly Sins: Prisioneros del Cielo",
      "genre_ids": [
        28,
        12,
        14,
        16
      ],
      "backdrop_path": "/uKwOX7MtKlAaGeCQe6c4jc1vZpj.jpg",
      "adult": false,
      "overview": "Traveling in search of the rare ingredient, “sky fish”  Meliodas and Hawk arrive at a palace that floats above the clouds. The people there are busy preparing a ceremony, meant to protect their home from a ferocious beast that awakens once every 3,000 years. But before the ritual is complete, the Six Knights of Black—a Demon Clan army—removes the seal on the beast, threatening the lives of everyone in the Sky Palace.",
      "release_date": "2018-08-18"
    },
    {
      "vote_count": 830,
      "id": 442249,
      "video": false,
      "vote_average": 5.9,
      "title": "The First Purge",
      "popularity": 105.793,
      "poster_path": "/2slvblTroiT1lY9bYLK7Amigo1k.jpg",
      "original_language": "en",
      "original_title": "The First Purge",
      "genre_ids": [
        28,
        878,
        53,
        27
      ],
      "backdrop_path": "/r4clWIxKeWoqrHspQP0XunuUmB7.jpg",
      "adult": false,
      "overview": "To push the crime rate below one percent for the rest of the year, the New Founding Fathers of America test a sociological theory that vents aggression for one night in one isolated community. But when the violence of oppressors meets the rage of the others, the contagion will explode from the trial-city borders and spread across the nation.",
      "release_date": "2018-07-04"
    },
    {
      "vote_count": 789,
      "id": 447200,
      "video": false,
      "vote_average": 6,
      "title": "Skyscraper",
      "popularity": 92.856,
      "poster_path": "/5LYSsOPzuP13201qSzMjNxi8FxN.jpg",
      "original_language": "en",
      "original_title": "Skyscraper",
      "genre_ids": [
        28,
        53,
        18
      ],
      "backdrop_path": "/oMKFQmoVgB69fyXfSMu0lGlHJP2.jpg",
      "adult": false,
      "overview": "Framed and on the run, a former FBI agent must save his family from a blazing fire in the world's tallest building.",
      "release_date": "2018-07-11"
    },
    {
      "vote_count": 393,
      "id": 400535,
      "video": false,
      "vote_average": 6.7,
      "title": "Sicario: Day of the Soldado",
      "popularity": 87.982,
      "poster_path": "/msqWSQkU403cQKjQHnWLnugv7EY.jpg",
      "original_language": "en",
      "original_title": "Sicario: Day of the Soldado",
      "genre_ids": [
        28,
        80,
        18,
        53
      ],
      "backdrop_path": "/tnwMCH4yLBY4qpe6Nr4n66u4U3f.jpg",
      "adult": false,
      "overview": "Agent Matt Graver teams up with operative Alejandro Gillick to prevent Mexican drug cartels from smuggling terrorists across the United States border.",
      "release_date": "2018-06-27"
    },
    {
      "vote_count": 3,
      "id": 335983,
      "video": false,
      "vote_average": 8,
      "title": "Venom",
      "popularity": 78.903,
      "poster_path": "/2uNW4WbgBXL25BAbXGLnLqX71Sw.jpg",
      "original_language": "en",
      "original_title": "Venom",
      "genre_ids": [
        27,
        878,
        28,
        53
      ],
      "backdrop_path": "/VuukZLgaCrho2Ar8Scl9HtV3yD.jpg",
      "adult": false,
      "overview": "When Eddie Brock acquires the powers of a symbiote, he will have to release his alter-ego “Venom” to save his life.",
      "release_date": "2018-10-03"
    },
    {
      "vote_count": 1008,
      "id": 345940,
      "video": false,
      "vote_average": 6,
      "title": "The Meg",
      "popularity": 73.345,
      "poster_path": "/eyWICPcxOuTcDDDbTMOZawoOn8d.jpg",
      "original_language": "en",
      "original_title": "The Meg",
      "genre_ids": [
        28,
        878,
        53
      ],
      "backdrop_path": "/rH79sB6Nkx4cMW3JzsUy7wK0rhX.jpg",
      "adult": false,
      "overview": "A deep sea submersible pilot revisits his past fears in the Mariana Trench, and accidentally unleashes the seventy foot ancestor of the Great White Shark believed to be extinct.",
      "release_date": "2018-08-09"
    },
    {
      "vote_count": 1669,
      "id": 353081,
      "video": false,
      "vote_average": 7.3,
      "title": "Mission: Impossible - Fallout",
      "popularity": 66.711,
      "poster_path": "/AkJQpZp9WoNdj7pLYSj1L0RcMMN.jpg",
      "original_language": "en",
      "original_title": "Mission: Impossible - Fallout",
      "genre_ids": [
        12,
        28,
        53
      ],
      "backdrop_path": "/a9fRqsl6P27qxbDSb4pBXNv9Fwl.jpg",
      "adult": false,
      "overview": "When an IMF mission ends badly, the world is faced with dire consequences. As Ethan Hunt takes it upon himself to fulfill his original briefing, the CIA begin to question his loyalty and his motives. The IMF team find themselves in a race against time, hunted by assassins while trying to prevent a global catastrophe.",
      "release_date": "2018-07-25"
    },
    {
      "vote_count": 84,
      "id": 460885,
      "video": false,
      "vote_average": 6.4,
      "title": "Mandy",
      "popularity": 61.491,
      "poster_path": "/m0yf7J7HsKeK6E81SMRcX8vx6mH.jpg",
      "original_language": "en",
      "original_title": "Mandy",
      "genre_ids": [
        28,
        53,
        27
      ],
      "backdrop_path": "/mqbAmIiToU2R4VwZGgCqsfy6Yh4.jpg",
      "adult": false,
      "overview": "The Shadow Mountains, 1983. Red and Mandy lead a loving and peaceful existence; but when their pine-scented haven is savagely destroyed, Red is catapulted into a phantasmagoric journey filled with bloody vengeance and laced with fire.",
      "release_date": "2018-09-13"
    },
    {
      "vote_count": 14,
      "id": 332562,
      "video": false,
      "vote_average": 6.1,
      "title": "A Star Is Born",
      "popularity": 61.228,
      "poster_path": "/z90yO5iSkOkigBjN2ATF1x3oW3m.jpg",
      "original_language": "en",
      "original_title": "A Star Is Born",
      "genre_ids": [
        18,
        10402,
        10749
      ],
      "backdrop_path": "/840rbblaLc4SVxm8gF3DNdJ0YAE.jpg",
      "adult": false,
      "overview": "Seasoned musician Jackson Maine discovers—and falls in love with—struggling artist Ally. She has just about given up on her dream to make it big as a singer—until Jack coaxes her into the spotlight. But even as Ally's career takes off, the personal side of their relationship is breaking down, as Jack fights an ongoing battle with his own internal demons.",
      "release_date": "2018-09-28"
    },
    {
      "vote_count": 2548,
      "id": 260513,
      "video": false,
      "vote_average": 7.7,
      "title": "Incredibles 2",
      "popularity": 60.801,
      "poster_path": "/x1txcDXkcM65gl7w20PwYSxAYah.jpg",
      "original_language": "en",
      "original_title": "Incredibles 2",
      "genre_ids": [
        28,
        12,
        16,
        10751
      ],
      "backdrop_path": "/mabuNsGJgRuCTuGqjFkWe1xdu19.jpg",
      "adult": false,
      "overview": "Elastigirl springs into action to save the day, while Mr. Incredible faces his greatest challenge yet – taking care of the problems of his three children.",
      "release_date": "2018-06-14"
    },
    {
      "vote_count": 6,
      "id": 454293,
      "video": false,
      "vote_average": 7.8,
      "title": "Night School",
      "popularity": 51.807,
      "poster_path": "/1NSMAaBPSbWv7sGmF8oLGMNb8Qm.jpg",
      "original_language": "en",
      "original_title": "Night School",
      "genre_ids": [
        35
      ],
      "backdrop_path": "/7CWpvqVY5JWbEtkaenzqfJjVSal.jpg",
      "adult": false,
      "overview": "Teddy Walker is a successful salesman whose life takes an unexpected turn when he accidentally blows up his place of employment. Forced to attend night school to get his GED, Teddy soon finds himself dealing with a group of misfit students, his former high school nemesis and a feisty teacher who doesn't think he's too bright.",
      "release_date": "2018-09-27"
    },
    {
      "vote_count": 2162,
      "id": 363088,
      "video": false,
      "vote_average": 7,
      "title": "Ant-Man and the Wasp",
      "popularity": 49.18,
      "poster_path": "/rv1AWImgx386ULjcf62VYaW8zSt.jpg",
      "original_language": "en",
      "original_title": "Ant-Man and the Wasp",
      "genre_ids": [
        28,
        12,
        14,
        35,
        878
      ],
      "backdrop_path": "/6P3c80EOm7BodndGBUAJHHsHKrp.jpg",
      "adult": false,
      "overview": "As Scott Lang awaits expiration of his term of house detention, Hope van Dyne and Dr. Hank Pym involve him in a scheme to rescue Mrs. van Dyne from the micro-universe into which she has fallen, while two groups of schemers converge on them with intentions of stealing Dr. Pym's inventions.",
      "release_date": "2018-07-04"
    },
    {
      "vote_count": 126,
      "id": 484247,
      "video": false,
      "vote_average": 6.2,
      "title": "A Simple Favor",
      "popularity": 43.646,
      "poster_path": "/aIYsjQM0piKc0ibPBCTWv3sqshj.jpg",
      "original_language": "en",
      "original_title": "A Simple Favor",
      "genre_ids": [
        53,
        80,
        9648
      ],
      "backdrop_path": "/xXGNyEG2v48q0bVR4AH4Vca2yvy.jpg",
      "adult": false,
      "overview": "Mommy vlogger Stephanie joins her best friend Emily’s husband, Sean, to investigate her sudden disappearance from their small town.",
      "release_date": "2018-09-13"
    },
    {
      "vote_count": 2,
      "id": 501630,
      "video": false,
      "vote_average": 1,
      "title": "Summer '03",
      "popularity": 39.14,
      "poster_path": "/6KJJpezOX3UOyZ3CXPSQ3haU7pG.jpg",
      "original_language": "en",
      "original_title": "Summer '03",
      "genre_ids": [
        18
      ],
      "backdrop_path": null,
      "adult": false,
      "overview": "A 16-year-old girl and her extended family are left reeling after her calculating grandmother unveils an array of secrets on her deathbed.",
      "release_date": "2018-09-28"
    },
    {
      "vote_count": 5,
      "id": 537617,
      "video": false,
      "vote_average": 8,
      "title": "The Padre",
      "popularity": 36.305,
      "poster_path": "/j6QGVx8NcFX3bfpddik8vuYBLe5.jpg",
      "original_language": "en",
      "original_title": "The Padre",
      "genre_ids": [
        18
      ],
      "backdrop_path": "/aaISP3nSy6GGtPPOavzaqw0Zg7N.jpg",
      "adult": false,
      "overview": "American retired Judge Randall Nemes and his hired gun, Gaspar, track down a con man posing as a priest in a small Colombian town only to be thrown off-course by a scrappy 16-year-old girl intent on reuniting with her sister in the United States.",
      "release_date": "2018-09-28"
    },
    {
      "vote_count": 84,
      "id": 339103,
      "video": false,
      "vote_average": 5.8,
      "title": "Gotti",
      "popularity": 36.032,
      "poster_path": "/aJODtXkQBK0lEmD4x5KkALnSiN1.jpg",
      "original_language": "en",
      "original_title": "Gotti",
      "genre_ids": [
        80,
        18,
        36
      ],
      "backdrop_path": "/yttjD5YVSW4E1pdj2Ea3zQjlw1P.jpg",
      "adult": false,
      "overview": "John Gotti rises to the top of the New York underworld to become the boss of the Gambino crime family. His life takes a tumultuous turn as he faces tragedy, multiple trials and a prison sentence.",
      "release_date": "2018-06-15"
    },
    {
      "vote_count": 163,
      "id": 489999,
      "video": false,
      "vote_average": 7.6,
      "title": "Searching",
      "popularity": 33.883,
      "poster_path": "/9N0T3BaHZNdUCcMZQIM3yMUFwEh.jpg",
      "original_language": "en",
      "original_title": "Searching",
      "genre_ids": [
        18,
        53
      ],
      "backdrop_path": "/qu2IPnFyDztlUOYhCkPptXP1vnv.jpg",
      "adult": false,
      "overview": "After his 16-year-old daughter goes missing, a desperate father breaks into her laptop to look for clues to find her. A thriller that unfolds entirely on computer screens.",
      "release_date": "2018-08-24"
    }
  ],
  "page": 1,
  "total_results": 1137,
  "dates": {
    "maximum": "2018-10-03",
    "minimum": "2018-08-16"
  },
  "total_pages": 57
}